ISSS608-VAA - Take-Home Exercise 2: VAST Challenge 2023, Mini-Challenge 2
…
4.1 Entities

4.1.1 Companies

Of the companies, about 30% (2,797) do not have a name, only an ID number:

Show Code

MC2_nodes %>%
  select(id) %>%
  distinct() %>%
  filter(str_detect(id, regex(r"(-\d+$)")))

# A tibble: 2,797 × 1
   id    
   <chr> 
 1 -1143 
 2 -6894 
 3 -12516
 4 -1515 
 5 -193  
 6 -54   
 7 -21759
 8 -214  
 9 -987  
10 -754  
# ℹ 2,787 more rows
…
