ISSS608-VAA - Take-Home Exercise 1: City of Engagement
…
We can see that several columns have been set to data types different from the given description. Let’s correct the column data types.

participants %<>%
  mutate(across(c('participantId', 'householdSize', 'age'),
                as.integer))

participants %<>%
  mutate(educationLevel = educationLevel %>%
           fct_relevel(c('Low', 'HighSchoolOrCollege','Bachelors','Graduate')))

Double-check the column types are now correct:

participants

# A tibble: 1,011 × 7
   participantId householdSize haveKids   age educationLevel      interestGroup
           <int>         <int> <lgl>    <int> <fct>               <chr>        
 1             0             3 TRUE        36 HighSchoolOrCollege H            
 2             1             3 TRUE        25 HighSchoolOrCollege B            
 3             2             3 TRUE        35 HighSchoolOrCollege A            
 4             3             3 TRUE        21 HighSchoolOrCollege I            
 5             4             3 TRUE        43 Bachelors           H            
 6             5             3 TRUE        32 HighSchoolOrCollege D            
 7             6             3 TRUE        26 HighSchoolOrCollege I            
 8             7             3 TRUE        27 Bachelors           A            
 9             8             3 TRUE        20 Bachelors           G            
10             9             3 TRUE        35 Bachelors           D            
# ℹ 1,001 more rows
# ℹ 1 more variable: joviality <dbl>
…
2.3.2.1 Correct Data Types

Similar to the Participants data, several columns have been set to data types different from the given description. Let’s correct the column data types as well.

financial_journal %<>%
  mutate(across(participantId, as.integer))

financial_journal %<>%
  mutate(across(category, as.factor))

financial_journal

# A tibble: 1,513,636 × 4
   participantId timestamp           category  amount
           <int> <dttm>              <fct>      <dbl>
 1             0 2022-03-01 00:00:00 Wage      2473. 
 2             0 2022-03-01 00:00:00 Shelter   -555. 
 3             0 2022-03-01 00:00:00 Education  -38.0
 4             1 2022-03-01 00:00:00 Wage      2047. 
 5             1 2022-03-01 00:00:00 Shelter   -555. 
 6             1 2022-03-01 00:00:00 Education  -38.0
 7             2 2022-03-01 00:00:00 Wage      2437. 
 8             2 2022-03-01 00:00:00 Shelter   -557. 
 9             2 2022-03-01 00:00:00 Education  -12.8
10             3 2022-03-01 00:00:00 Wage      2367. 
# ℹ 1,513,626 more rows

2.3.2.2 Check for duplicate records

There are 2,226 records identified as duplicates:

financial_journal %>% get_dupes()

# A tibble: 2,226 × 5
   participantId timestamp           category  amount dupe_count
           <int> <dttm>              <fct>      <dbl>      <int>
 1             0 2022-03-01 00:00:00 Education  -38.0          2
 2             0 2022-03-01 00:00:00 Education  -38.0          2
 3             0 2022-03-01 00:00:00 Shelter   -555.           2
 4             0 2022-03-01 00:00:00 Shelter   -555.           2
 5             1 2022-03-01 00:00:00 Education  -38.0          2
 6             1 2022-03-01 00:00:00 Education  -38.0          2
 7             1 2022-03-01 00:00:00 Shelter   -555.           2
 8             1 2022-03-01 00:00:00 Shelter   -555.           2
 9             2 2022-03-01 00:00:00 Education  -12.8          2
10             2 2022-03-01 00:00:00 Education  -12.8          2
# ℹ 2,216 more rows
…
